Interact with the datos.gob.es API to download public data from all of Spain • opendataes
…
But more importantly, we can subset the metadata of the dataset as well as the data that was read.

elections$metadata
#> # A tibble: 3 x 8
#>   keywords language description url   date_issued         date_modified
#>   <chr>    <chr>    <chr>       <chr> <dttm>              <chr>        
#> 1 Absolut… en       Absolute r… http… 2013-03-13 23:00:00 No modificat…
#> 2 Absolut… es       Resultados… http… 2013-03-13 23:00:00 No modificat…
#> 3 Absolut… ca       Resultats … http… 2013-03-13 23:00:00 No modificat…
#> # … with 2 more variables: publisher <chr>, publisher_data_url <chr>

elections$data
#> $`2019_Eleccions_Parlament_Europeu.csv`
#> # A tibble: 39,516 x 8
#>      Any Codi_districte Nom_districte Codi_barri Nom_barri Seccio_censal Camp 
#>    <dbl>          <dbl> <chr>         <chr>      <chr>             <dbl> <chr>
#>  1  2019              1 Ciutat Vella  01         el Raval              1 Elec…
#>  2  2019              1 Ciutat Vella  01         el Raval              2 Elec…
#>  3  2019              1 Ciutat Vella  01         el Raval              3 Elec…
#>  4  2019              1 Ciutat Vella  01         el Raval              4 Elec…
#>  5  2019              1 Ciutat Vella  01         el Raval              5 Elec…
#>  6  2019              1 Ciutat Vella  01         el Raval              6 Elec…
#>  7  2019              1 Ciutat Vella  01         el Raval              7 Elec…
#>  8  2019              1 Ciutat Vella  01         el Raval              8 Elec…
#>  9  2019              1 Ciutat Vella  01         el Raval              9 Elec…
#> 10  2019              1 Ciutat Vella  01         el Raval             10 Elec…
#> # … with 39,506 more rows, and 1 more variable: Nombre <dbl>
#> 
#> $`2014_Eleccions_Parlament_Europeu.csv`
#> # A tibble: 46,992 x 8
#>      Any Codi_districte Nom_districte Codi_barri Nom_barri Seccio_censal Camp 
#>    <dbl>          <dbl> <chr>              <dbl> <chr>     <chr>         <chr>
#>  1  2014              1 Ciutat Vella           1 el Raval  001           Elec…
#>  2  2014              1 Ciutat Vella           1 el Raval  002           Elec…
#>  3  2014              1 Ciutat Vella           1 el Raval  003           Elec…
#>  4  2014              1 Ciutat Vella           1 el Raval  004           Elec…
#>  5  2014              1 Ciutat Vella           1 el Raval  005           Elec…
#>  6  2014              1 Ciutat Vella           1 el Raval  006           Elec…
#>  7  2014              1 Ciutat Vella           1 el Raval  007           Elec…
#>  8  2014              1 Ciutat Vella           1 el Raval  008           Elec…
#>  9  2014              1 Ciutat Vella           1 el Raval  009           Elec…
#> 10  2014              1 Ciutat Vella           1 el Raval  010           Elec…
#> # … with 46,982 more rows, and 1 more variable: Nombre <dbl>
#> 
#> $`2009_Eleccions_Parlament_Europeu.csv`
#> # A tibble: 42,440 x 8
#>      Any Codi_districte Nom_districte Codi_barri Nom_barri Seccio_censal Camp 
#>    <dbl>          <dbl> <chr>              <dbl> <chr>     <chr>         <chr>
#>  1  2009              1 Ciutat Vella           1 el Raval  001           Elec…
#>  2  2009              1 Ciutat Vella           1 el Raval  002           Elec…
#>  3  2009              1 Ciutat Vella           1 el Raval  003           Elec…
#>  4  2009              1 Ciutat Vella           1 el Raval  004           Elec…
#>  5  2009              1 Ciutat Vella           1 el Raval  005           Elec…
#>  6  2009              1 Ciutat Vella           1 el Raval  006           Elec…
#>  7  2009              1 Ciutat Vella           1 el Raval  007           Elec…
#>  8  2009              1 Ciutat Vella           1 el Raval  008           Elec…
#>  9  2009              1 Ciutat Vella           1 el Raval  009           Elec…
#> 10  2009              1 Ciutat Vella           1 el Raval  010           Elec…
#> # … with 42,430 more rows, and 1 more variable: Nombre <dbl>
…
