…
``` r
elections$metadata
#> # A tibble: 3 x 8
#>   keywords language description url   date_issued         date_modified
#>   <chr>    <chr>    <chr>       <chr> <dttm>              <chr>        
#> 1 Absolut… es       Elecciones… http… 2013-03-13 23:00:00 No modificat…
#> 2 Absolut… ca       Eleccions … http… 2013-03-13 23:00:00 No modificat…
#> 3 Absolut… en       European P… http… 2013-03-13 23:00:00 No modificat…
#> # … with 2 more variables: publisher <chr>, publisher_data_url <chr>
```

``` r
elections$data
#> $`2019_Eleccions_Parlament_Europeu.csv`
#> # A tibble: 39,516 x 8
#>      Any Codi_districte Nom_districte Codi_barri Nom_barri Seccio_censal
#>    <dbl>          <dbl> <chr>              <dbl> <chr>     <chr>        
#>  1  2019              1 Ciutat Vella           1 el Raval  001          
#>  2  2019              1 Ciutat Vella           1 el Raval  002          
#>  3  2019              1 Ciutat Vella           1 el Raval  003          
#>  4  2019              1 Ciutat Vella           1 el Raval  004          
#>  5  2019              1 Ciutat Vella           1 el Raval  005          
#>  6  2019              1 Ciutat Vella           1 el Raval  006          
#>  7  2019              1 Ciutat Vella           1 el Raval  007          
#>  8  2019              1 Ciutat Vella           1 el Raval  008          
#>  9  2019              1 Ciutat Vella           1 el Raval  009          
#> 10  2019              1 Ciutat Vella           1 el Raval  010          
#> # … with 39,506 more rows, and 2 more variables: Camp <chr>, Nombre <dbl>
#> 
#> $`2009_Eleccions_Parlament_Europeu.csv`
#> # A tibble: 42,440 x 8
#>      Any Codi_districte Nom_districte Codi_barri Nom_barri Seccio_censal
#>    <dbl>          <dbl> <chr>              <dbl> <chr>     <chr>        
#>  1  2009              1 Ciutat Vella           1 el Raval  001          
#>  2  2009              1 Ciutat Vella           1 el Raval  002          
#>  3  2009              1 Ciutat Vella           1 el Raval  003          
#>  4  2009              1 Ciutat Vella           1 el Raval  004          
#>  5  2009              1 Ciutat Vella           1 el Raval  005          
#>  6  2009              1 Ciutat Vella           1 el Raval  006          
#>  7  2009              1 Ciutat Vella           1 el Raval  007          
#>  8  2009              1 Ciutat Vella           1 el Raval  008          
#>  9  2009              1 Ciutat Vella           1 el Raval  009          
#> 10  2009              1 Ciutat Vella           1 el Raval  010          
#> # … with 42,430 more rows, and 2 more variables: Camp <chr>, Nombre <dbl>
#> 
#> $`2014_Eleccions_Parlament_Europeu.csv`
#> # A tibble: 46,992 x 8
#>      Any Codi_districte Nom_districte Codi_barri Nom_barri Seccio_censal
#>    <dbl>          <dbl> <chr>              <dbl> <chr>     <chr>        
#>  1  2014              1 Ciutat Vella           1 el Raval  001          
#>  2  2014              1 Ciutat Vella           1 el Raval  002          
#>  3  2014              1 Ciutat Vella           1 el Raval  003          
#>  4  2014              1 Ciutat Vella           1 el Raval  004          
#>  5  2014              1 Ciutat Vella           1 el Raval  005          
#>  6  2014              1 Ciutat Vella           1 el Raval  006          
#>  7  2014              1 Ciutat Vella           1 el Raval  007          
#>  8  2014              1 Ciutat Vella           1 el Raval  008          
#>  9  2014              1 Ciutat Vella           1 el Raval  009          
#> 10  2014              1 Ciutat Vella           1 el Raval  010          
#> # … with 46,982 more rows, and 2 more variables: Camp <chr>, Nombre <dbl>
```
…
