Interact with the datos.gob.es API to download public data from all of Spain • opendataes
…
But more importantly, we can subset the metadata of the dataset as well as the data that was read.

elections$metadata
#> # A tibble: 3 x 8
#>   keywords language description url   date_issued         date_modified
#>   <chr>    <chr>    <chr>       <chr> <dttm>              <chr>        
#> 1 Año 200~ es       Elecciones~ http~ 2013-03-13 23:00:00 No modificat~
#> 2 Año 200~ ca       Eleccions ~ http~ 2013-03-13 23:00:00 No modificat~
#> 3 Año 200~ en       European P~ http~ 2013-03-13 23:00:00 No modificat~
#> # ... with 2 more variables: publisher <chr>, publisher_data_url <chr>

elections$data
#> $`2014_europees-a02.csv`
#> # A tibble: 74 x 14
#>      Dte Barris Participacio Abstencio ERCNECat CIU   ICVEUIA   PSC    PP
#>    <int> <chr>         <dbl>     <dbl>    <dbl> <chr>   <dbl> <dbl> <dbl>
#>  1    NA BARCE~          510       490      110 10,6       64    62    61
#>  2     1 1. el~          375       625       75 5,1        55    63    41
#>  3     1 2. el~          417       583       94 7,1        68    50    36
#>  4     1 3. la~          367       633      104 5,4        42    57    33
#>  5     1 4. Sa~          431       569       85 6,6        77    55    41
#>  6     2 5. el~          557       443      132 12,9       72    52    59
#>  7     2 6. la~          538       462      141 12,7       68    51    52
#>  8     2 7. la~          575       425      119 17,6       74    40    65
#>  9     2 8. l'~          551       449      117 16,4       65    42    61
#> 10     2 9. la~          555       445      130 14,6       66    48    60
#> # ... with 64 more rows, and 5 more variables: Cs <dbl>, PODEMOS <chr>,
#> #   Altres <dbl>, Blancs <chr>, Nuls <chr>
#> 
#> $`2009_europees-a02.csv`
#> # A tibble: 74 x 10
#>    Dte    Barris       Blancs Nuls    PSC CIU      PP ERC   ICVEUIA Altres
#>    <chr>  <chr>        <chr>  <chr> <dbl> <chr> <dbl> <chr> <chr>   <chr> 
#>  1 BARCE~ <NA>         1,2    0,3     131 8,7      83 3,4   3,2     2,4   
#>  2 1      1. el Raval  0,7    0,2     127 4,4      59 2,6   3,1     2,4   
#>  3 1      2. el Barri~ 0,9    0,3     104 5,8      47 3,6   4,1     2,9   
#>  4 1      3. la Barce~ 0,5    0,2     129 4,8      48 2,6   2,3     1,7   
#>  5 1      4. Sant Per~ 0,9    0,5     118 6,4      56 3,2   4,4     2,8   
#>  6 2      5. el Fort ~ 1,3    0,3     122 11,0     84 4,3   3,8     2,7   
#>  7 2      6. la Sagra~ 1,3    0,3     121 10,1     72 4,1   3,5     2,2   
#>  8 2      7. la Dreta~ 1,6    0,3      91 14,7     94 4,0   3,9     3,1   
#>  9 2      8. l'Antiga~ 1,4    0,3      97 13,3     89 3,6   3,5     2,7   
#> 10 2      9. la Nova ~ 1,3    0,2     110 11,5     86 4,2   3,5     2,4   
#> # ... with 64 more rows
…
