Understanding opendataes: a case study approach • opendataes
…
accidents <- cargar_datos(kw, encoding = 'ASCII')

The result in the data slot is always a list that will contain data frames either with the data (if it was successful in reading it) or with the URL to the dataset (if it failed reading it for some reason).

accidents$data
#> $`2012_ACCIDENTS_TIPUS_GU_BCN_.csv`
#> # A tibble: 9,819 x 20
#>    `N#mero d'exped~ `Codi districte` `Nom districte` `Codi barri`
#>    <chr>                       <int> <chr>                  <int>
#>  1 2012S005688                    10 Sant Mart!                64
#>  2 2012S002763                    10 Sant Mart!                64
#>  3 2012S007349                    10 Sant Mart!                64
#>  4 2012S003847                    10 Sant Mart!                64
#>  5 2012S009254                    10 Sant Mart!                64
#>  6 2012S000046                    10 Sant Mart!                64
#>  7 2012S000746                    10 Sant Mart!                64
#>  8 2012S006222                    10 Sant Mart!                64
#>  9 2012S004425                    10 Sant Mart!                64
#> 10 2012S003295                    10 Sant Mart!                64
#> # ... with 9,809 more rows, and 16 more variables: `Nom barri` <chr>,
#> #   `Codi carrer` <int>, `Nom carrer` <chr>, `Num postal caption` <chr>,
#> #   `Descripci" dia setmana` <chr>, `Dia setmana` <chr>, `Descripci" tipus
#> #   dia` <chr>, `NK Any` <int>, `Mes de any` <int>, `Nom mes` <chr>, `Dia
#> #   de mes` <int>, `Hora de dia` <int>, `Descripci" torn` <chr>,
#> #   `Descripci" tipus accident` <chr>, `Coordenada UTM (Y)` <dbl>,
#> #   `Coordenada UTM (X)` <dbl>
#> 
#> $`2015_ACCIDENTS_TIPUS_GU_BCN_.csv`
#> # A tibble: 10,521 x 20
#>    `Nzmero d'exped~ `Codi districte` `Nom districte` `Codi barri`
#>    <chr>                       <int> <chr>                  <int>
#>  1 2015S000215                    10 Sant Martm                64
#>  2 2015S000787                    10 Sant Martm                64
#>  3 2015S000390                    10 Sant Martm                64
#>  4 2015S007294                    10 Sant Martm                64
#>  5 2015S009836                    10 Sant Martm                64
#>  6 2015S009453                    10 Sant Martm                64
#>  7 2015S007312                    10 Sant Martm                64
#>  8 2015S004660                    10 Sant Martm                64
#>  9 2015S006407                    10 Sant Martm                64
#> 10 2015S009834                    10 Sant Martm                64
#> # ... with 10,511 more rows, and 16 more variables: `Nom barri` <chr>,
#> #   `Codi carrer` <int>, `Nom carrer` <chr>, `Num postal caption` <chr>,
#> #   `Descripcis dia setmana` <chr>, `Dia setmana` <chr>, `Descripcis tipus
#> #   dia` <chr>, `NK Any` <int>, `Mes de any` <int>, `Nom mes` <chr>, `Dia
#> #   de mes` <int>, `Hora de dia` <chr>, `Descripcis torn` <chr>,
#> #   `Descripcis tipus accident` <chr>, `Coordenada UTM (Y)` <dbl>,
#> #   `Coordenada UTM (X)` <dbl>
#> 
#> $`2010_ACCIDENTS_TIPUS_GU_BCN_.csv`
#> # A tibble: 9,518 x 20
#>    `N#mero d'exped~ `Codi districte` `Nom districte` `Codi barri`
#>    <chr>                       <int> <chr>                  <int>
#>  1 2010S006909                    10 Sant Mart!                64
#>  2 2010S006757                    10 Sant Mart!                64
#>  3 2010S005591                    10 Sant Mart!                64
#>  4 2010S008924                    10 Sant Mart!                64
#>  5 2010S000187                    10 Sant Mart!                64
#>  6 2010S001506                    10 Sant Mart!                64
#>  7 2010S003708                    10 Sant Mart!                64
#>  8 2010S009015                    10 Sant Mart!                64
#>  9 2010S002944                    10 Sant Mart!                64
#> 10 2010S001386                    10 Sant Mart!                64
#> # ... with 9,508 more rows, and 16 more variables: `Nom barri` <chr>,
#> #   `Codi carrer` <int>, `Nom carrer` <chr>, `Num postal caption` <chr>,
#> #   `Descripci" dia setmana` <chr>, `Dia setmana` <chr>, `Descripci" tipus
#> #   dia` <chr>, `NK Any` <int>, `Mes de any` <int>, `Nom mes` <chr>, `Dia
#> #   de mes` <int>, `Hora de dia` <int>, `Descripci" torn` <chr>,
#> #   `Descripci" tipus accident` <chr>, `Coordenada UTM (Y)` <dbl>,
#> #   `Coordenada UTM (X)` <dbl>
#> 
#> $`2011_ACCIDENTS_TIPUS_GU_BCN_.csv`
#> # A tibble: 9,275 x 20
#>    `N#mero d'exped~ `Codi districte` `Nom districte` `Codi barri`
#>    <chr>                       <int> <chr>                  <int>
#>  1 2011S007726                    10 Sant Mart!                64
#>  2 2011S000791                    10 Sant Mart!                64
#>  3 2011S004524                    10 Sant Mart!                64
#>  4 2011S002431                    10 Sant Mart!                64
#>  5 2011S007530                    10 Sant Mart!                64
#>  6 2011S000669                    10 Sant Mart!                64
#>  7 2011S006833                    10 Sant Mart!                64
#>  8 2011S000770                    10 Sant Mart!                64
#>  9 2011S008377                    10 Sant Mart!                64
#> 10 2011S002789                    10 Sant Mart!                64
#> # ... with 9,265 more rows, and 16 more variables: `Nom barri` <chr>,
#> #   `Codi carrer` <int>, `Nom carrer` <chr>, `Num postal caption` <chr>,
#> #   `Descripci" dia setmana` <chr>, `Dia setmana` <chr>, `Descripci" tipus
#> #   dia` <chr>, `NK Any` <int>, `Mes de any` <int>, `Nom mes` <chr>, `Dia
#> #   de mes` <int>, `Hora de dia` <int>, `Descripci" torn` <chr>,
#> #   `Descripci" tipus accident` <chr>, `Coordenada UTM (Y)` <dbl>,
#> #   `Coordenada UTM (X)` <dbl>
#> 
#> $`2017_ACCIDENTS_TIPUS_GU_BCN`
#> # A tibble: 1 x 2
#>   format URL                                                              
#>   <chr>  <chr>                                                            
#> 1 csv    http://opendata-ajuntament.barcelona.cat/data/dataset/834b8920-0~
#> 
#> $`2013_ACCIDENTS_TIPUS_GU_BCN_.csv`
#> # A tibble: 10,039 x 20
#>    `N#mero d'exped~ `Codi districte` `Nom districte` `Codi barri`
#>    <chr>                       <int> <chr>                  <int>
#>  1 2013S009145                    10 Sant Mart!                64
#>  2 2013S006244                    10 Sant Mart!                64
#>  3 2013S000511                    10 Sant Mart!                64
#>  4 2013S009354                    10 Sant Mart!                64
#>  5 2013S001212                    10 Sant Mart!                64
#>  6 2013S004033                    10 Sant Mart!                64
#>  7 2013S009460                    10 Sant Mart!                64
#>  8 2013S001091                    10 Sant Mart!                64
#>  9 2013S008659                    10 Sant Mart!                64
#> 10 2013S008254                    10 Sant Mart!                64
#> # ... with 10,029 more rows, and 16 more variables: `Nom barri` <chr>,
#> #   `Codi carrer` <int>, `Nom carrer` <chr>, `Num postal caption` <chr>,
#> #   `Descripci" dia setmana` <chr>, `Dia setmana` <chr>, `Descripci" tipus
#> #   dia` <chr>, `NK Any` <int>, `Mes de any` <int>, `Nom mes` <chr>, `Dia
#> #   de mes` <int>, `Hora de dia` <int>, `Descripci" torn` <chr>,
#> #   `Descripci" tipus accident` <chr>, `Coordenada UTM (Y)` <dbl>,
#> #   `Coordenada UTM (X)` <dbl>
#> 
#> $`2014_ACCIDENTS_TIPUS_GU_BCN_.csv`
#> # A tibble: 10,157 x 20
#>    `N#mero d'exped~ `Codi districte` `Nom districte` `Codi barri`
#>    <chr>                       <int> <chr>                  <int>
#>  1 2014S007794                    10 Sant Mart!                64
#>  2 2014S001086                    10 Sant Mart!                64
#>  3 2014S008488                    10 Sant Mart!                64
#>  4 2014S000086                    10 Sant Mart!                64
#>  5 2014S003039                    10 Sant Mart!                64
#>  6 2014S008370                    10 Sant Mart!                64
#>  7 2014S005938                    10 Sant Mart!                64
#>  8 2014S008180                    10 Sant Mart!                64
#>  9 2014S001264                    10 Sant Mart!                64
#> 10 2014S003376                    10 Sant Mart!                64
#> # ... with 10,147 more rows, and 16 more variables: `Nom barri` <chr>,
#> #   `Codi carrer` <int>, `Nom carrer` <chr>, `Num postal caption` <chr>,
#> #   `Descripci" dia setmana` <chr>, `Dia setmana` <chr>, `Descripci" tipus
#> #   dia` <chr>, `NK Any` <int>, `Mes de any` <int>, `Nom mes` <chr>, `Dia
#> #   de mes` <int>, `Hora de dia` <int>, `Descripci" torn` <chr>,
#> #   `Descripci" tipus accident` <chr>, `Coordenada UTM (Y)` <dbl>,
#> #   `Coordenada UTM (X)` <dbl>
…
Coming back to the accidents data, this explains why many datasets were read. We can compare the name of each dataset to figure out what they mean.

names(accidents$data)
#> [1] "2012_ACCIDENTS_TIPUS_GU_BCN_.csv" "2015_ACCIDENTS_TIPUS_GU_BCN_.csv"
#> [3] "2010_ACCIDENTS_TIPUS_GU_BCN_.csv" "2011_ACCIDENTS_TIPUS_GU_BCN_.csv"
#> [5] "2017_ACCIDENTS_TIPUS_GU_BCN"      "2013_ACCIDENTS_TIPUS_GU_BCN_.csv"
#> [7] "2014_ACCIDENTS_TIPUS_GU_BCN_.csv" "2016_ACCIDENTS_TIPUS_GU_BCN.csv"

They’re the causes of accidents for different years. Let’s sort them according to the year and check whether all were read.

accidents$data <- accidents$data[sort(names(accidents$data))]
accidents$data
#> $`2010_ACCIDENTS_TIPUS_GU_BCN_.csv`
#> # A tibble: 9,518 x 20
#>    `N#mero d'exped~ `Codi districte` `Nom districte` `Codi barri`
#>    <chr>                       <int> <chr>                  <int>
#>  1 2010S006909                    10 Sant Mart!                64
#>  2 2010S006757                    10 Sant Mart!                64
#>  3 2010S005591                    10 Sant Mart!                64
#>  4 2010S008924                    10 Sant Mart!                64
#>  5 2010S000187                    10 Sant Mart!                64
#>  6 2010S001506                    10 Sant Mart!                64
#>  7 2010S003708                    10 Sant Mart!                64
#>  8 2010S009015                    10 Sant Mart!                64
#>  9 2010S002944                    10 Sant Mart!                64
#> 10 2010S001386                    10 Sant Mart!                64
#> # ... with 9,508 more rows, and 16 more variables: `Nom barri` <chr>,
#> #   `Codi carrer` <int>, `Nom carrer` <chr>, `Num postal caption` <chr>,
#> #   `Descripci" dia setmana` <chr>, `Dia setmana` <chr>, `Descripci" tipus
#> #   dia` <chr>, `NK Any` <int>, `Mes de any` <int>, `Nom mes` <chr>, `Dia
#> #   de mes` <int>, `Hora de dia` <int>, `Descripci" torn` <chr>,
#> #   `Descripci" tipus accident` <chr>, `Coordenada UTM (Y)` <dbl>,
#> #   `Coordenada UTM (X)` <dbl>
#> 
#> $`2011_ACCIDENTS_TIPUS_GU_BCN_.csv`
#> # A tibble: 9,275 x 20
#>    `N#mero d'exped~ `Codi districte` `Nom districte` `Codi barri`
#>    <chr>                       <int> <chr>                  <int>
#>  1 2011S007726                    10 Sant Mart!                64
#>  2 2011S000791                    10 Sant Mart!                64
#>  3 2011S004524                    10 Sant Mart!                64
#>  4 2011S002431                    10 Sant Mart!                64
#>  5 2011S007530                    10 Sant Mart!                64
#>  6 2011S000669                    10 Sant Mart!                64
#>  7 2011S006833                    10 Sant Mart!                64
#>  8 2011S000770                    10 Sant Mart!                64
#>  9 2011S008377                    10 Sant Mart!                64
#> 10 2011S002789                    10 Sant Mart!                64
#> # ... with 9,265 more rows, and 16 more variables: `Nom barri` <chr>,
#> #   `Codi carrer` <int>, `Nom carrer` <chr>, `Num postal caption` <chr>,
#> #   `Descripci" dia setmana` <chr>, `Dia setmana` <chr>, `Descripci" tipus
#> #   dia` <chr>, `NK Any` <int>, `Mes de any` <int>, `Nom mes` <chr>, `Dia
#> #   de mes` <int>, `Hora de dia` <int>, `Descripci" torn` <chr>,
#> #   `Descripci" tipus accident` <chr>, `Coordenada UTM (Y)` <dbl>,
#> #   `Coordenada UTM (X)` <dbl>
#> 
#> $`2012_ACCIDENTS_TIPUS_GU_BCN_.csv`
#> # A tibble: 9,819 x 20
#>    `N#mero d'exped~ `Codi districte` `Nom districte` `Codi barri`
#>    <chr>                       <int> <chr>                  <int>
#>  1 2012S005688                    10 Sant Mart!                64
#>  2 2012S002763                    10 Sant Mart!                64
#>  3 2012S007349                    10 Sant Mart!                64
#>  4 2012S003847                    10 Sant Mart!                64
#>  5 2012S009254                    10 Sant Mart!                64
#>  6 2012S000046                    10 Sant Mart!                64
#>  7 2012S000746                    10 Sant Mart!                64
#>  8 2012S006222                    10 Sant Mart!                64
#>  9 2012S004425                    10 Sant Mart!                64
#> 10 2012S003295                    10 Sant Mart!                64
#> # ... with 9,809 more rows, and 16 more variables: `Nom barri` <chr>,
#> #   `Codi carrer` <int>, `Nom carrer` <chr>, `Num postal caption` <chr>,
#> #   `Descripci" dia setmana` <chr>, `Dia setmana` <chr>, `Descripci" tipus
#> #   dia` <chr>, `NK Any` <int>, `Mes de any` <int>, `Nom mes` <chr>, `Dia
#> #   de mes` <int>, `Hora de dia` <int>, `Descripci" torn` <chr>,
#> #   `Descripci" tipus accident` <chr>, `Coordenada UTM (Y)` <dbl>,
#> #   `Coordenada UTM (X)` <dbl>
#> 
#> $`2013_ACCIDENTS_TIPUS_GU_BCN_.csv`
#> # A tibble: 10,039 x 20
#>    `N#mero d'exped~ `Codi districte` `Nom districte` `Codi barri`
#>    <chr>                       <int> <chr>                  <int>
#>  1 2013S009145                    10 Sant Mart!                64
#>  2 2013S006244                    10 Sant Mart!                64
#>  3 2013S000511                    10 Sant Mart!                64
#>  4 2013S009354                    10 Sant Mart!                64
#>  5 2013S001212                    10 Sant Mart!                64
#>  6 2013S004033                    10 Sant Mart!                64
#>  7 2013S009460                    10 Sant Mart!                64
#>  8 2013S001091                    10 Sant Mart!                64
#>  9 2013S008659                    10 Sant Mart!                64
#> 10 2013S008254                    10 Sant Mart!                64
#> # ... with 10,029 more rows, and 16 more variables: `Nom barri` <chr>,
#> #   `Codi carrer` <int>, `Nom carrer` <chr>, `Num postal caption` <chr>,
#> #   `Descripci" dia setmana` <chr>, `Dia setmana` <chr>, `Descripci" tipus
#> #   dia` <chr>, `NK Any` <int>, `Mes de any` <int>, `Nom mes` <chr>, `Dia
#> #   de mes` <int>, `Hora de dia` <int>, `Descripci" torn` <chr>,
#> #   `Descripci" tipus accident` <chr>, `Coordenada UTM (Y)` <dbl>,
#> #   `Coordenada UTM (X)` <dbl>
#> 
#> $`2014_ACCIDENTS_TIPUS_GU_BCN_.csv`
#> # A tibble: 10,157 x 20
#>    `N#mero d'exped~ `Codi districte` `Nom districte` `Codi barri`
#>    <chr>                       <int> <chr>                  <int>
#>  1 2014S007794                    10 Sant Mart!                64
#>  2 2014S001086                    10 Sant Mart!                64
#>  3 2014S008488                    10 Sant Mart!                64
#>  4 2014S000086                    10 Sant Mart!                64
#>  5 2014S003039                    10 Sant Mart!                64
#>  6 2014S008370                    10 Sant Mart!                64
#>  7 2014S005938                    10 Sant Mart!                64
#>  8 2014S008180                    10 Sant Mart!                64
#>  9 2014S001264                    10 Sant Mart!                64
#> 10 2014S003376                    10 Sant Mart!                64
#> # ... with 10,147 more rows, and 16 more variables: `Nom barri` <chr>,
#> #   `Codi carrer` <int>, `Nom carrer` <chr>, `Num postal caption` <chr>,
#> #   `Descripci" dia setmana` <chr>, `Dia setmana` <chr>, `Descripci" tipus
#> #   dia` <chr>, `NK Any` <int>, `Mes de any` <int>, `Nom mes` <chr>, `Dia
#> #   de mes` <int>, `Hora de dia` <int>, `Descripci" torn` <chr>,
#> #   `Descripci" tipus accident` <chr>, `Coordenada UTM (Y)` <dbl>,
#> #   `Coordenada UTM (X)` <dbl>
#> 
#> $`2015_ACCIDENTS_TIPUS_GU_BCN_.csv`
#> # A tibble: 10,521 x 20
#>    `Nzmero d'exped~ `Codi districte` `Nom districte` `Codi barri`
#>    <chr>                       <int> <chr>                  <int>
#>  1 2015S000215                    10 Sant Martm                64
#>  2 2015S000787                    10 Sant Martm                64
#>  3 2015S000390                    10 Sant Martm                64
#>  4 2015S007294                    10 Sant Martm                64
#>  5 2015S009836                    10 Sant Martm                64
#>  6 2015S009453                    10 Sant Martm                64
#>  7 2015S007312                    10 Sant Martm                64
#>  8 2015S004660                    10 Sant Martm                64
#>  9 2015S006407                    10 Sant Martm                64
#> 10 2015S009834                    10 Sant Martm                64
#> # ... with 10,511 more rows, and 16 more variables: `Nom barri` <chr>,
#> #   `Codi carrer` <int>, `Nom carrer` <chr>, `Num postal caption` <chr>,
#> #   `Descripcis dia setmana` <chr>, `Dia setmana` <chr>, `Descripcis tipus
#> #   dia` <chr>, `NK Any` <int>, `Mes de any` <int>, `Nom mes` <chr>, `Dia
#> #   de mes` <int>, `Hora de dia` <chr>, `Descripcis torn` <chr>,
#> #   `Descripcis tipus accident` <chr>, `Coordenada UTM (Y)` <dbl>,
#> #   `Coordenada UTM (X)` <dbl>
…
