…
# Access the data. Note that the name of the dataset is in the list slot. Whenever
# there are different files being read, you might want to enter to homepage
# of the dataset in datos.gob.es with some_data$metadata$url or directly
# to the homepage of dataset at the publisher's website
# some_data$metadata$publisher_data_url
some_data$data
#> $t02.csv
#> # A tibble: 75 x 11
#>    Dte.  Barris `2003-2007` `2004-2008` `2005-2009` `2006-2010` `2007-2011`
#>    <chr> <chr>        <dbl>       <dbl>       <dbl>       <dbl>       <dbl>
#>  1 BARC~ NA            1359        1381        1404        1363        1310
#>  2 1     1. el~          76          77          80          78          79
#>  3 1     2. el~          19          16          13          10           9
#>  4 1     3. la~          15          14          17          18          15
#>  5 1     4. Sa~          24          27          23          24          25
#>  6 2     5. el~          15          11          15          12          10
#>  7 2     6. la~          28          20          17          16          16
#>  8 2     7. la~          10          10           7           6           5
#>  9 2     8. l'~          13          17          16          14          14
#> 10 2     9. la~          19          21          21          18          18
#> # ... with 65 more rows, and 4 more variables: `2008-2012` <dbl>,
#> #   `2009-2013` <dbl>, `2010-2014` <dbl>, `2011-2015` <dbl>
…
