Understanding opendataes: a case study approach • opendataes
…
and the data slot:

accidents$data
#> $`Distribucion sin nombre`
#> # A tibble: 1 x 2
#>   format URL                                                                    
#>   <chr>  <chr>                                                                  
#> 1 csv    https://opendata-ajuntament.barcelona.cat/data/dataset/834b8920-0685-4…
#> 
#> $`Distribucion sin nombre`
#> # A tibble: 10,536 x 22
#>    Numero_expedient Codi_districte Nom_districte Codi_barri Nom_barri           
#>    <chr>                     <dbl> <chr>              <dbl> <chr>               
#>  1 2019S000253                  10 Sant Martí            64 el Camp de l'Arpa d…
#>  2 2019S006454                  10 Sant Martí            64 el Camp de l'Arpa d…
#>  3 2019S006494                  10 Sant Martí            64 el Camp de l'Arpa d…
#>  4 2019S009443                  10 Sant Martí            64 el Camp de l'Arpa d…
#>  5 2019S004807                  10 Sant Martí            64 el Camp de l'Arpa d…
#>  6 2019S009715                  10 Sant Martí            64 el Camp de l'Arpa d…
#>  7 2019S008122                  10 Sant Martí            64 el Camp de l'Arpa d…
#>  8 2019S001387                  10 Sant Martí            64 el Camp de l'Arpa d…
#>  9 2019S005614                  10 Sant Martí            72 Sant Martí de Prove…
#> 10 2019S005960                  10 Sant Martí            72 Sant Martí de Prove…
#> # … with 10,526 more rows, and 17 more variables: Codi_carrer <dbl>,
#> #   Nom_carrer <chr>, Num_postal_caption <chr>, Descripcio_dia_setmana <chr>,
#> #   Dia_setmana <chr>, Descripcio_tipus_dia <chr>, NK_Any <dbl>, Mes_any <dbl>,
#> #   Nom_mes <chr>, Dia_mes <dbl>, Hora_dia <dbl>, Descripcio_torn <chr>,
#> #   Descripcio_tipus_accident <chr>, Coordenada_UTM_X <dbl>,
#> #   Coordenada_UTM_Y <dbl>, Longitud <dbl>, Latitud <dbl>
#> 
#> $`Distribucion sin nombre`
#> # A tibble: 6,580 x 22
#>    Numero_expedient Codi_districte Nom_districte    Codi_barri Nom_barri        
#>    <chr>                     <dbl> <chr>                 <dbl> <chr>            
#>  1 2020S000001                   7 Horta-Guinardó           36 la Font d'en Far…
#>  2 2020S000002                   3 Sants-Montjuïc           16 la Bordeta       
#>  3 2020S000003                   2 Eixample                  8 l'Antiga Esquerr…
#>  4 2020S000004                   4 Les Corts                19 les Corts        
#>  5 2020S000005                   2 Eixample                  7 la Dreta de l'Ei…
#>  6 2020S000006                   3 Sants-Montjuïc           17 Sants - Badal    
#>  7 2020S000007                   9 Sant Andreu              60 Sant Andreu      
#>  8 2020S000008                   5 Sarrià-Sant Ger…         23 Sarrià           
#>  9 2020S000009                   2 Eixample                  7 la Dreta de l'Ei…
#> 10 2020S000010                  10 Sant Martí               73 la Verneda i la …
#> # … with 6,570 more rows, and 17 more variables: Codi_carrer <dbl>,
#> #   Nom_carrer <chr>, Num_postal_caption <chr>, Descripcio_dia_setmana <chr>,
#> #   Dia_setmana <chr>, Descripcio_tipus_dia <chr>, NK_Any <dbl>, Mes_any <dbl>,
#> #   Nom_mes <chr>, Dia_mes <dbl>, Hora_dia <chr>, Descripcio_torn <chr>,
#> #   Descripcio_tipus_accident <chr>, Coordenada_UTM_X <dbl>,
#> #   Coordenada_UTM_Y <dbl>, Longitud <dbl>, Latitud <dbl>
#> 
#> $`Distribucion sin nombre`
#> # A tibble: 1 x 2
#>   format URL                                                                    
#>   <chr>  <chr>                                                                  
#> 1 csv    https://opendata-ajuntament.barcelona.cat/data/dataset/834b8920-0685-4…
#> 
#> $`Distribucion sin nombre`
#> # A tibble: 10,551 x 22
#>    Codi_expedient Codi_districte Nom_districte  Codi_barri Nom_barri Codi_carrer
#>    <chr>                   <dbl> <chr>               <dbl> <chr>           <dbl>
#>  1 2018S000001                 3 Sants-Montjuïc         11 el Poble…      198804
#>  2 2018S000002                 2 Eixample                9 la Nova …      361406
#>  3 2018S000003                10 Sant Martí             64 el Camp …      161407
#>  4 2018S000004                 8 Nou Barris             44 Vilapici…      111704
#>  5 2018S000005                 8 Nou Barris             56 Vallbona       330606
#>  6 2018S000006                 4 Les Corts              19 les Corts      144601
#>  7 2018S000007                10 Sant Martí             73 la Verne…       60807
#>  8 2018S000008                 3 Sants-Montjuïc         17 Sants - …      312400
#>  9 2018S000009                 2 Eixample               10 Sant Ant…      323203
#> 10 2018S000010                 8 Nou Barris             45 Porta          100209
#> # … with 10,541 more rows, and 16 more variables: Nom_carrer <chr>,
#> #   Num_postal <chr>, Dia_setmana <chr>, ID_Dia_setmana <chr>, Tipus_dia <chr>,
#> #   Any <dbl>, Mes <dbl>, Nom_mes <chr>, Dia_de_mes <dbl>, Hora_de_dia <chr>,
#> #   Torn <chr>, Tipus_accident <chr>, Coordenada_UTM_X <dbl>,
#> #   Coordenada_UTM_Y <dbl>, Longitud <dbl>, Latitud <dbl>
#> 
#> $`Distribucion sin nombre`
#> # A tibble: 1 x 2
#>   format URL                                                                    
#>   <chr>  <chr>                                                                  
#> 1 csv    https://opendata-ajuntament.barcelona.cat/data/dataset/834b8920-0685-4…
#> 
#> $`Distribucion sin nombre`
#> # A tibble: 10,521 x 20
#>    `Número d'expedi… `Codi districte` `Nom districte` `Codi barri` `Nom barri`  
#>    <chr>                        <dbl> <chr>                  <dbl> <chr>        
#>  1 2015S000215                     10 Sant Martí                64 el Camp de l…
#>  2 2015S000787                     10 Sant Martí                64 el Camp de l…
#>  3 2015S000390                     10 Sant Martí                64 el Camp de l…
#>  4 2015S007294                     10 Sant Martí                64 el Camp de l…
#>  5 2015S009836                     10 Sant Martí                64 el Camp de l…
#>  6 2015S009453                     10 Sant Martí                64 el Camp de l…
#>  7 2015S007312                     10 Sant Martí                64 el Camp de l…
#>  8 2015S004660                     10 Sant Martí                64 el Camp de l…
#>  9 2015S006407                     10 Sant Martí                64 el Camp de l…
#> 10 2015S009834                     10 Sant Martí                64 el Camp de l…
#> # … with 10,511 more rows, and 15 more variables: Codi carrer <dbl>,
#> #   Nom carrer <chr>, Num postal caption <chr>, Descripció dia setmana <chr>,
#> #   Dia setmana <chr>, Descripció tipus dia <chr>, NK Any <dbl>,
#> #   Mes de any <dbl>, Nom mes <chr>, Dia de mes <dbl>, Hora de dia <chr>,
#> #   Descripció torn <chr>, Descripció tipus accident <chr>,
#> #   Coordenada UTM (Y) <dbl>, Coordenada UTM (X) <dbl>
#> 
#> $`Distribucion sin nombre`
#> # A tibble: 11,009 x 22
#>    Numero_expedient Codi_districte Nom_districte Codi_barri Nom_barri           
#>    <chr>                     <dbl> <chr>              <dbl> <chr>               
#>  1 2017S009418                  -1 Desconegut            -1 Desconegut          
#>  2 2017S008852                  -1 Desconegut            -1 Desconegut          
#>  3 2017S001023                  10 Sant Martí            64 el Camp de l'Arpa d…
#>  4 2017S009198                  10 Sant Martí            64 el Camp de l'Arpa d…
#>  5 2017S006546                  10 Sant Martí            64 el Camp de l'Arpa d…
#>  6 2017S003698                  10 Sant Martí            64 el Camp de l'Arpa d…
#>  7 2017S004977                  10 Sant Martí            64 el Camp de l'Arpa d…
#>  8 2017S008080                  10 Sant Martí            64 el Camp de l'Arpa d…
#>  9 2017S004521                  10 Sant Martí            64 el Camp de l'Arpa d…
#> 10 2017S004180                  10 Sant Martí            64 el Camp de l'Arpa d…
#> # … with 10,999 more rows, and 17 more variables: Codi_carrer <dbl>,
#> #   Nom_carrer <chr>, Num_postal_caption <chr>, Descripcio_dia_setmana <chr>,
#> #   Dia_setmana <chr>, Descripcio_tipus_dia <chr>, Any <dbl>, Mes_any <dbl>,
#> #   Nom_mes <chr>, Dia_mes <dbl>, Hora_dia <dbl>, Descripcio_torn <chr>,
#> #   Descripcio_tipus_accident <chr>, Coordenada_UTM_X <dbl>,
#> #   Coordenada_UTM_Y <dbl>, Longitud <dbl>, Latitud <dbl>
#> 
#> $`Distribucion sin nombre`
#> # A tibble: 1 x 2
#>   format URL                                                                    
#>   <chr>  <chr>                                                                  
#> 1 csv    https://opendata-ajuntament.barcelona.cat/data/dataset/834b8920-0685-4…
#> 
#> $`Distribucion sin nombre`
#> # A tibble: 10,701 x 22
#>    Numero_expedient Codi_districte Nom_districte Codi_barri Nom_barri           
#>    <chr>                     <dbl> <chr>              <dbl> <chr>               
#>  1 2016S002575                  10 Sant Martí            64 el Camp de l'Arpa d…
#>  2 2016S001146                  10 Sant Martí            64 el Camp de l'Arpa d…
#>  3 2016S009619                  10 Sant Martí            64 el Camp de l'Arpa d…
#>  4 2016S003881                  10 Sant Martí            64 el Camp de l'Arpa d…
#>  5 2016S004162                  10 Sant Martí            64 el Camp de l'Arpa d…
#>  6 2016S009951                  10 Sant Martí            64 el Camp de l'Arpa d…
#>  7 2016S004619                  10 Sant Martí            64 el Camp de l'Arpa d…
#>  8 2016S009702                  10 Sant Martí            64 el Camp de l'Arpa d…
#>  9 2016S003529                  10 Sant Martí            64 el Camp de l'Arpa d…
#> 10 2016S008654                  10 Sant Martí            64 el Camp de l'Arpa d…
#> # … with 10,691 more rows, and 17 more variables: Codi_carrer <dbl>,
#> #   Nom_carrer <chr>, Num_postal_caption <chr>, Descripcio_dia_setmana <chr>,
#> #   Dia_setmana <chr>, Descripcio_tipus_dia <chr>, Any <dbl>, Mes_any <dbl>,
#> #   Nom_mes <chr>, Dia_mes <dbl>, Hora_dia <dbl>, Descripcio_torn <chr>,
#> #   Descripcio_tipus_accident <chr>, Coordenada_UTM_X <dbl>,
#> #   Coordenada_UTM_Y <dbl>, Longitud <dbl>, Latitud <dbl>
…
accidents <- openes_load(kw, encoding = 'ASCII')

The result in the data slot is always a list that will contain data frames either with the data (if it was successful in reading it) or with the URL to the dataset (if it failed reading it for some reason).

accidents$data
#> $`Distribucion sin nombre`
#> # A tibble: 1 x 2
#>   format URL                                                                    
#>   <chr>  <chr>                                                                  
#> 1 csv    https://opendata-ajuntament.barcelona.cat/data/dataset/834b8920-0685-4…
#> 
#> $`Distribucion sin nombre`
#> # A tibble: 10,536 x 22
#>    Numero_expedient Codi_districte Nom_districte Codi_barri Nom_barri           
#>    <chr>                     <dbl> <chr>              <dbl> <chr>               
#>  1 2019S000253                  10 Sant Martí            64 el Camp de l'Arpa d…
#>  2 2019S006454                  10 Sant Martí            64 el Camp de l'Arpa d…
#>  3 2019S006494                  10 Sant Martí            64 el Camp de l'Arpa d…
#>  4 2019S009443                  10 Sant Martí            64 el Camp de l'Arpa d…
#>  5 2019S004807                  10 Sant Martí            64 el Camp de l'Arpa d…
#>  6 2019S009715                  10 Sant Martí            64 el Camp de l'Arpa d…
#>  7 2019S008122                  10 Sant Martí            64 el Camp de l'Arpa d…
#>  8 2019S001387                  10 Sant Martí            64 el Camp de l'Arpa d…
#>  9 2019S005614                  10 Sant Martí            72 Sant Martí de Prove…
#> 10 2019S005960                  10 Sant Martí            72 Sant Martí de Prove…
#> # … with 10,526 more rows, and 17 more variables: Codi_carrer <dbl>,
#> #   Nom_carrer <chr>, Num_postal_caption <chr>, Descripcio_dia_setmana <chr>,
#> #   Dia_setmana <chr>, Descripcio_tipus_dia <chr>, NK_Any <dbl>, Mes_any <dbl>,
#> #   Nom_mes <chr>, Dia_mes <dbl>, Hora_dia <dbl>, Descripcio_torn <chr>,
#> #   Descripcio_tipus_accident <chr>, Coordenada_UTM_X <dbl>,
#> #   Coordenada_UTM_Y <dbl>, Longitud <dbl>, Latitud <dbl>
#> 
#> $`Distribucion sin nombre`
#> # A tibble: 6,580 x 22
#>    Numero_expedient Codi_districte Nom_districte    Codi_barri Nom_barri        
#>    <chr>                     <dbl> <chr>                 <dbl> <chr>            
#>  1 2020S000001                   7 Horta-Guinardó           36 la Font d'en Far…
#>  2 2020S000002                   3 Sants-Montjuïc           16 la Bordeta       
#>  3 2020S000003                   2 Eixample                  8 l'Antiga Esquerr…
#>  4 2020S000004                   4 Les Corts                19 les Corts        
#>  5 2020S000005                   2 Eixample                  7 la Dreta de l'Ei…
#>  6 2020S000006                   3 Sants-Montjuïc           17 Sants - Badal    
#>  7 2020S000007                   9 Sant Andreu              60 Sant Andreu      
#>  8 2020S000008                   5 Sarrià-Sant Ger…         23 Sarrià           
#>  9 2020S000009                   2 Eixample                  7 la Dreta de l'Ei…
#> 10 2020S000010                  10 Sant Martí               73 la Verneda i la …
#> # … with 6,570 more rows, and 17 more variables: Codi_carrer <dbl>,
#> #   Nom_carrer <chr>, Num_postal_caption <chr>, Descripcio_dia_setmana <chr>,
#> #   Dia_setmana <chr>, Descripcio_tipus_dia <chr>, NK_Any <dbl>, Mes_any <dbl>,
#> #   Nom_mes <chr>, Dia_mes <dbl>, Hora_dia <chr>, Descripcio_torn <chr>,
#> #   Descripcio_tipus_accident <chr>, Coordenada_UTM_X <dbl>,
#> #   Coordenada_UTM_Y <dbl>, Longitud <dbl>, Latitud <dbl>
#> 
#> $`Distribucion sin nombre`
#> # A tibble: 1 x 2
#>   format URL                                                                    
#>   <chr>  <chr>                                                                  
#> 1 csv    https://opendata-ajuntament.barcelona.cat/data/dataset/834b8920-0685-4…
#> 
#> $`Distribucion sin nombre`
#> # A tibble: 10,551 x 22
#>    Codi_expedient Codi_districte Nom_districte  Codi_barri Nom_barri Codi_carrer
#>    <chr>                   <dbl> <chr>               <dbl> <chr>           <dbl>
#>  1 2018S000001                 3 Sants-Montjuïc         11 el Poble…      198804
#>  2 2018S000002                 2 Eixample                9 la Nova …      361406
#>  3 2018S000003                10 Sant Martí             64 el Camp …      161407
#>  4 2018S000004                 8 Nou Barris             44 Vilapici…      111704
#>  5 2018S000005                 8 Nou Barris             56 Vallbona       330606
#>  6 2018S000006                 4 Les Corts              19 les Corts      144601
#>  7 2018S000007                10 Sant Martí             73 la Verne…       60807
#>  8 2018S000008                 3 Sants-Montjuïc         17 Sants - …      312400
#>  9 2018S000009                 2 Eixample               10 Sant Ant…      323203
#> 10 2018S000010                 8 Nou Barris             45 Porta          100209
#> # … with 10,541 more rows, and 16 more variables: Nom_carrer <chr>,
#> #   Num_postal <chr>, Dia_setmana <chr>, ID_Dia_setmana <chr>, Tipus_dia <chr>,
#> #   Any <dbl>, Mes <dbl>, Nom_mes <chr>, Dia_de_mes <dbl>, Hora_de_dia <chr>,
#> #   Torn <chr>, Tipus_accident <chr>, Coordenada_UTM_X <dbl>,
#> #   Coordenada_UTM_Y <dbl>, Longitud <dbl>, Latitud <dbl>
#> 
#> $`Distribucion sin nombre`
#> # A tibble: 1 x 2
#>   format URL                                                                    
#>   <chr>  <chr>                                                                  
#> 1 csv    https://opendata-ajuntament.barcelona.cat/data/dataset/834b8920-0685-4…
#> 
#> $`Distribucion sin nombre`
#> # A tibble: 10,521 x 20
#>    `Número d'expedi… `Codi districte` `Nom districte` `Codi barri` `Nom barri`  
#>    <chr>                        <dbl> <chr>                  <dbl> <chr>        
#>  1 2015S000215                     10 Sant Martí                64 el Camp de l…
#>  2 2015S000787                     10 Sant Martí                64 el Camp de l…
#>  3 2015S000390                     10 Sant Martí                64 el Camp de l…
#>  4 2015S007294                     10 Sant Martí                64 el Camp de l…
#>  5 2015S009836                     10 Sant Martí                64 el Camp de l…
#>  6 2015S009453                     10 Sant Martí                64 el Camp de l…
#>  7 2015S007312                     10 Sant Martí                64 el Camp de l…
#>  8 2015S004660                     10 Sant Martí                64 el Camp de l…
#>  9 2015S006407                     10 Sant Martí                64 el Camp de l…
#> 10 2015S009834                     10 Sant Martí                64 el Camp de l…
#> # … with 10,511 more rows, and 15 more variables: Codi carrer <dbl>,
#> #   Nom carrer <chr>, Num postal caption <chr>, Descripció dia setmana <chr>,
#> #   Dia setmana <chr>, Descripció tipus dia <chr>, NK Any <dbl>,
#> #   Mes de any <dbl>, Nom mes <chr>, Dia de mes <dbl>, Hora de dia <chr>,
#> #   Descripció torn <chr>, Descripció tipus accident <chr>,
#> #   Coordenada UTM (Y) <dbl>, Coordenada UTM (X) <dbl>
#> 
#> $`Distribucion sin nombre`
#> # A tibble: 11,009 x 22
#>    Numero_expedient Codi_districte Nom_districte Codi_barri Nom_barri           
#>    <chr>                     <dbl> <chr>              <dbl> <chr>               
#>  1 2017S009418                  -1 Desconegut            -1 Desconegut          
#>  2 2017S008852                  -1 Desconegut            -1 Desconegut          
#>  3 2017S001023                  10 Sant Martí            64 el Camp de l'Arpa d…
#>  4 2017S009198                  10 Sant Martí            64 el Camp de l'Arpa d…
#>  5 2017S006546                  10 Sant Martí            64 el Camp de l'Arpa d…
#>  6 2017S003698                  10 Sant Martí            64 el Camp de l'Arpa d…
#>  7 2017S004977                  10 Sant Martí            64 el Camp de l'Arpa d…
#>  8 2017S008080                  10 Sant Martí            64 el Camp de l'Arpa d…
#>  9 2017S004521                  10 Sant Martí            64 el Camp de l'Arpa d…
#> 10 2017S004180                  10 Sant Martí            64 el Camp de l'Arpa d…
#> # … with 10,999 more rows, and 17 more variables: Codi_carrer <dbl>,
#> #   Nom_carrer <chr>, Num_postal_caption <chr>, Descripcio_dia_setmana <chr>,
#> #   Dia_setmana <chr>, Descripcio_tipus_dia <chr>, Any <dbl>, Mes_any <dbl>,
#> #   Nom_mes <chr>, Dia_mes <dbl>, Hora_dia <dbl>, Descripcio_torn <chr>,
#> #   Descripcio_tipus_accident <chr>, Coordenada_UTM_X <dbl>,
#> #   Coordenada_UTM_Y <dbl>, Longitud <dbl>, Latitud <dbl>
…
